<?xml version="1.0" encoding="UTF-8" standalone="no"?>
<svg width="30px" height="31px" viewBox="0 0 30 31" version="1.1" xmlns="http://www.w3.org/2000/svg" xmlns:xlink="http://www.w3.org/1999/xlink" xmlns:sketch="http://www.bohemiancoding.com/sketch/ns">
    <!-- Generator: Sketch 3.0.4 (8054) - http://www.bohemiancoding.com/sketch -->
    <title>cart (1)</title>
    <desc>Created with Sketch.</desc>
    <defs></defs>
    <g id="Page-1" stroke="none" stroke-width="1" fill="none" fill-rule="evenodd" sketch:type="MSPage">
        <g id="cart-(1)" sketch:type="MSLayerGroup" fill="#FFFFFF">
            <g id="Page-1" sketch:type="MSShapeGroup">
                <path d="M9.375,17.25 L9.375,19.125 L26.25,19.125 C26.7578151,19.125 27.1972638,19.3105451 27.5683593,19.6816407 C27.939455,20.0527362 28.125,20.4921849 28.125,21 C28.125,21.5078151 27.939455,21.9472638 27.5683593,22.3183593 C27.1972638,22.689455 26.7578151,22.875 26.25,22.875 L8.4375,22.875 C7.65624609,22.875 6.99219024,22.6015653 6.4453125,22.0546875 C5.89843476,21.5078097 5.625,20.8437538 5.625,20.0625 L5.625,4.125 L0,4.125 L0,0.375 L5.625,0.375 C6.67969278,0.375 7.56835577,0.736324512 8.29101562,1.45898438 C9.01367549,2.18164424 9.375,3.07030722 9.375,4.125 L28.59375,4.125 C29.1015651,4.125 29.4824207,4.3007795 29.7363282,4.65234375 C29.9902356,5.00390801 30.0585944,5.43359121 29.9414063,5.94140625 L27.1875,15.4335938 C27.0703119,15.9414089 26.7773462,16.371092 26.3085938,16.7226562 C25.8398414,17.0742205 25.3515651,17.25 24.84375,17.25 L9.375,17.25 L9.375,17.25 Z M9.375,13.5 L24.7265625,13.5 L26.3085938,7.875 L9.375,7.875 L9.375,13.5 L9.375,13.5 Z M11.25,28.03125 C11.25,28.6562532 11.0156273,29.2031226 10.546875,29.671875 C10.0781227,30.1406274 9.53125313,30.375 8.90625,30.375 L7.96875,30.375 C7.34374687,30.375 6.79687734,30.1406274 6.328125,29.671875 C5.85937266,29.2031226 5.625,28.6562532 5.625,28.03125 L5.625,27.09375 C5.625,26.4687468 5.85937266,25.9218774 6.328125,25.453125 C6.79687734,24.9843726 7.34374687,24.75 7.96875,24.75 L8.90625,24.75 C9.53125313,24.75 10.0781227,24.9843726 10.546875,25.453125 C11.0156273,25.9218774 11.25,26.4687468 11.25,27.09375 L11.25,28.03125 L11.25,28.03125 Z M28.125,28.03125 C28.125,28.6562532 27.8906274,29.2031226 27.421875,29.671875 C26.9531226,30.1406274 26.4062532,30.375 25.78125,30.375 L24.84375,30.375 C24.2187468,30.375 23.6718774,30.1406274 23.203125,29.671875 C22.7343726,29.2031226 22.5,28.6562532 22.5,28.03125 L22.5,27.09375 C22.5,26.4687468 22.7343726,25.9218774 23.203125,25.453125 C23.6718774,24.9843726 24.2187468,24.75 24.84375,24.75 L25.78125,24.75 C26.4062532,24.75 26.9531226,24.9843726 27.421875,25.453125 C27.8906274,25.9218774 28.125,26.4687468 28.125,27.09375 L28.125,28.03125 L28.125,28.03125 Z" id="Type-something-4"></path>
            </g>
        </g>
    </g>
</svg>